module solrad.nl/wpa-provisioner

go 1.17

require (
	github.com/andybalholm/brotli v1.0.2 // indirect
	github.com/davecgh/go-spew v1.1.1 // indirect
	github.com/go-playground/locales v0.14.0 // indirect
	github.com/go-playground/universal-translator v0.18.0 // indirect
	github.com/go-playground/validator v9.31.0+incompatible // indirect
	github.com/go-playground/validator/v10 v10.10.0 // indirect
	github.com/gofiber/fiber/v2 v2.26.0 // indirect
	github.com/julienschmidt/httprouter v1.3.0 // indirect
	github.com/klauspost/compress v1.13.4 // indirect
	github.com/koron/go-ssdp v0.0.2 // indirect
	github.com/leodido/go-urn v1.2.1 // indirect
	github.com/pkg/errors v0.9.1 // indirect
	github.com/theojulienne/go-wireless v1.0.0 // indirect
	github.com/valyala/bytebufferpool v1.0.0 // indirect
	github.com/valyala/fasthttp v1.32.0 // indirect
	github.com/valyala/tcplisten v1.0.0 // indirect
	golang.org/x/crypto v0.0.0-20210711020723-a769d52b0f97 // indirect
	golang.org/x/net v0.0.0-20210510120150-4163338589ed // indirect
	golang.org/x/sys v0.0.0-20210806184541-e5e7981a1069 // indirect
	golang.org/x/text v0.3.6 // indirect
)
